<svg version="1.1" xmlns="http://www.w3.org/2000/svg" viewBox="0 0 2408.111111111111 990.2222222222221" width="4816.222222222222" height="1980.4444444444441">
  <!-- svg-source:excalidraw -->
  
  <defs>
    <style>
      @font-face {
        font-family: "Virgil";
        src: url("https://excalidraw.com/Virgil.woff2");
      }
      @font-face {
        font-family: "Cascadia";
        src: url("https://excalidraw.com/Cascadia.woff2");
      }
    </style>
  </defs>
  <rect x="0" y="0" width="2408.111111111111" height="990.2222222222221" fill="#ffffff"></rect><g stroke-linecap="round"><g transform="translate(727.1111111111111 98) rotate(0 1.4838276321440844 152.39725343994797)"><path d="M0.51 -0.92 C1.09 49.61, 3.1 253.47, 3.65 304.12 M-0.68 1.21 C-0.22 51.88, 2.35 255.3, 3.04 305.71" stroke="#000000" stroke-width="1" fill="none"></path></g></g><g transform="translate(292.1880341880341 97) rotate(0 205 34.5)"><text x="0" y="48" font-family="Virgil, Segoe UI Emoji" font-size="53.6798336798337px" fill="#000000" text-anchor="start" style="white-space: pre;" direction="ltr">Data collection</text></g><g transform="translate(497.11111111111103 191) rotate(0 86.5 13)"><text x="0" y="18" font-family="Virgil, Segoe UI Emoji" font-size="20px" fill="#000000" text-anchor="start" style="white-space: pre;" direction="ltr">remarkable device</text></g><g transform="translate(550.1111111111111 257) rotate(0 42 13)"><text x="0" y="18" font-family="Virgil, Segoe UI Emoji" font-size="20px" fill="#000000" text-anchor="start" style="white-space: pre;" direction="ltr">browsers</text></g><g transform="translate(526.1111111111111 333) rotate(0 59.5 13)"><text x="0" y="18" font-family="Virgil, Segoe UI Emoji" font-size="20px" fill="#000000" text-anchor="start" style="white-space: pre;" direction="ltr">mobile apps </text></g><g stroke-linecap="round"><g transform="translate(731.1111111111111 313) rotate(0 40.51372545549651 -0.6770661696813249)"><path d="M0.63 0.5 C13.87 0.43, 66.05 0.12, 79.22 -0.36 M-0.5 -0.28 C13.14 -0.67, 68.32 -1.65, 81.52 -1.86" stroke="#000000" stroke-width="1" fill="none"></path></g><g transform="translate(731.1111111111111 313) rotate(0 40.51372545549651 -0.6770661696813249)"><path d="M54.35 7.58 C63.45 5.13, 68.03 3.03, 81.39 -2.35 M54.41 9.25 C61.34 5.3, 68.21 2.56, 81.23 -1.13" stroke="#000000" stroke-width="1" fill="none"></path></g><g transform="translate(731.1111111111111 313) rotate(0 40.51372545549651 -0.6770661696813249)"><path d="M54 -12.93 C63.22 -9.56, 67.9 -5.84, 81.39 -2.35 M54.06 -11.27 C61.1 -9.57, 68.07 -6.65, 81.23 -1.13" stroke="#000000" stroke-width="1" fill="none"></path></g></g><g stroke-linecap="round" transform="translate(817.1111111111111 282) rotate(0 80.5 24.5)"><path d="M-0.88 -0.92 C36.46 -2.49, 72.69 1.05, 162.24 -1.78 M0.77 -0.57 C58.1 -0.21, 115.22 0.4, 161.22 -0.43 M159.4 0.25 C159.41 12.63, 159.36 27.5, 159.59 49.77 M161.89 -0.41 C159.56 17.28, 159.87 36.01, 160.74 49.06 M161.89 48.8 C106.75 50.27, 52.28 50.89, 1.5 49.57 M161.31 48.02 C112.08 46.98, 62.62 47.18, 0.53 49.5 M-0.09 50.79 C-1.37 31.6, 1.74 12.31, -1.35 -1.96 M0.14 49.85 C-0.17 35.42, -0.17 23.28, 0.22 0.91" stroke="#000000" stroke-width="1" fill="none"></path></g><g transform="translate(824.1111111111111 290) rotate(0 74.5 13)"><text x="0" y="18" font-family="Virgil, Segoe UI Emoji" font-size="20px" fill="#000000" text-anchor="start" style="white-space: pre;" direction="ltr">Message queue</text></g><g stroke-linecap="round"><g transform="translate(981.1111111111111 308.57432698979807) rotate(0 32.2462698666007 -0.7227330854427976)"><path d="M0.55 -0.21 C11.33 -0.07, 54.52 0.06, 65.11 0.16 M-0.62 -1.37 C9.97 -1.51, 53.04 -1.58, 64.22 -1.6" stroke="#000000" stroke-width="1" fill="none"></path></g><g transform="translate(981.1111111111111 308.57432698979807) rotate(0 32.2462698666007 -0.7227330854427976)"><path d="M35.69 8.9 C46.8 3.54, 56.66 2.49, 62.73 -1.19 M36.92 7.84 C41.33 7.27, 48.09 4.32, 63.92 -1.51" stroke="#000000" stroke-width="1" fill="none"></path></g><g transform="translate(981.1111111111111 308.57432698979807) rotate(0 32.2462698666007 -0.7227330854427976)"><path d="M35.65 -11.62 C46.65 -10.04, 56.52 -4.16, 62.73 -1.19 M36.88 -12.68 C41.11 -8.75, 47.87 -7.2, 63.92 -1.51" stroke="#000000" stroke-width="1" fill="none"></path></g></g><g stroke-linecap="round" transform="translate(1047.111111111111 278) rotate(0 83 29.5)"><path d="M1.51 -1.35 C37.56 -0.22, 79.25 0.71, 166.94 -1.96 M-0.34 0.7 C64.65 -0.17, 130.86 -0.63, 165.63 0.72 M167.74 -1.53 C167.14 15.6, 166.17 29.81, 167.6 60.29 M165.46 -0.05 C164.81 21.52, 165.98 43.79, 166.89 58.22 M166.18 59.63 C119.03 60.85, 69.16 61.15, -1.04 57.15 M166.38 58.63 C103.27 57.59, 40.01 57.59, -0.82 58.73 M-0.66 59.83 C0.38 41.02, 0.75 19.75, -1.26 -1.08 M0.13 59.62 C-1.23 41.55, 0.63 23.42, 0.64 0.54" stroke="#000000" stroke-width="1" fill="none"></path></g><g transform="translate(963.8418803418804 295) rotate(0 104.00000000000011 14)"><text x="0" y="20.000000000000018" font-family="Virgil, Segoe UI Emoji" font-size="21.538461538461554px" fill="#000000" text-anchor="start" style="white-space: pre;" direction="ltr">           ingestion</text></g><g stroke-linecap="round"><g transform="translate(1180.8418803418804 310.09230115720516) rotate(0 60.557463429919835 -0.04668448861761476)"><path d="M1.06 -0.77 C21.04 -0.95, 101.25 -1.58, 120.96 -1.54 M0.15 1.44 C19.94 1.45, 100.12 -0.31, 120.38 -0.39" stroke="#000000" stroke-width="1" fill="none"></path></g><g transform="translate(1180.8418803418804 310.09230115720516) rotate(0 60.557463429919835 -0.04668448861761476)"><path d="M91.06 11.42 C102.07 4.31, 114.71 0.97, 121.21 -1.56 M92.26 10.08 C103.53 6.38, 112 2.04, 119.98 -0.97" stroke="#000000" stroke-width="1" fill="none"></path></g><g transform="translate(1180.8418803418804 310.09230115720516) rotate(0 60.557463429919835 -0.04668448861761476)"><path d="M90.77 -9.1 C101.82 -8.21, 114.57 -3.55, 121.21 -1.56 M91.98 -10.44 C103.19 -6.66, 111.77 -3.52, 119.98 -0.97" stroke="#000000" stroke-width="1" fill="none"></path></g></g><g transform="translate(739.1111111111111 421) rotate(0 217.73076923076906 25.5)"><text x="0" y="35.99999999999998" font-family="Virgil, Segoe UI Emoji" font-size="39.230769230769184px" fill="#000000" text-anchor="start" style="white-space: pre;" direction="ltr">Data Warehouse/Lake</text></g><g transform="translate(747.1111111111111 511) rotate(0 60.5 51)"><text x="0" y="18.5" font-family="Virgil, Segoe UI Emoji" font-size="20px" fill="#000000" text-anchor="start" style="white-space: pre;" direction="ltr">- Raw Data</text><text x="0" y="44" font-family="Virgil, Segoe UI Emoji" font-size="20px" fill="#000000" text-anchor="start" style="white-space: pre;" direction="ltr"></text><text x="0" y="69.5" font-family="Virgil, Segoe UI Emoji" font-size="20px" fill="#000000" text-anchor="start" style="white-space: pre;" direction="ltr">- </text><text x="0" y="95" font-family="Virgil, Segoe UI Emoji" font-size="20px" fill="#000000" text-anchor="start" style="white-space: pre;" direction="ltr"></text></g><g transform="translate(1131.111111111111 491) rotate(0 103 13)"><text x="0" y="18" font-family="Virgil, Segoe UI Emoji" font-size="20px" fill="#000000" text-anchor="start" style="white-space: pre;" direction="ltr">* Data Visualization</text></g><g transform="translate(1135.111111111111 532) rotate(0 72.5 25.5)"><text x="0" y="18.5" font-family="Virgil, Segoe UI Emoji" font-size="20px" fill="#000000" text-anchor="start" style="white-space: pre;" direction="ltr">* Ad-hoc query</text><text x="0" y="44" font-family="Virgil, Segoe UI Emoji" font-size="20px" fill="#000000" text-anchor="start" style="white-space: pre;" direction="ltr"></text></g><g transform="translate(1135.111111111111 617) rotate(0 74 13)"><text x="0" y="18" font-family="Virgil, Segoe UI Emoji" font-size="20px" fill="#000000" text-anchor="start" style="white-space: pre;" direction="ltr">* Data export</text></g><g stroke-linecap="round" transform="translate(1312.111111111111 279) rotate(0 88 28.5)"><path d="M1.21 1.75 C52.69 -1.05, 100.15 0.09, 175.27 1.17 M-0.18 0.74 C52.02 0.59, 104.63 0.51, 176 0.35 M175.3 -0.16 C177.86 19.25, 174.44 43.17, 177.65 58.14 M175.92 0.09 C174.61 11.74, 175.78 24.83, 175.54 56.33 M175.09 56.55 C125.85 56.28, 73.9 57.43, -1.97 55.91 M175.32 56.51 C117.28 56.31, 60.35 57.29, 0.08 57.05 M-0.05 58.66 C0.96 43.85, 0.12 29.38, -0.32 0.16 M-0.14 57.01 C0.22 40, -0.07 24.57, 0.05 -0.73" stroke="#000000" stroke-width="1" fill="none"></path></g><g transform="translate(1347.111111111111 292.2105263157895) rotate(0 45 15.39473684210526)"><text x="0" y="21.78947368421052" font-family="Virgil, Segoe UI Emoji" font-size="23.684210526315788px" fill="#000000" text-anchor="start" style="white-space: pre;" direction="ltr">Cleaning</text></g><g stroke-linecap="round" transform="translate(1271.111111111111 118) rotate(0 105.5 19)"><path d="M-0.76 -0.43 C77.86 -0.96, 151.98 -1.25, 212.22 1.34 M0.87 0.28 C81.78 1.63, 164.54 1.9, 211.3 -0.11 M209.78 0.7 C211.14 10.86, 212.02 25.55, 209.54 37.67 M211.73 -0.83 C211.38 14.13, 211.52 29.09, 210.79 37.62 M210.07 38.35 C163.59 38.71, 114.51 39.11, -1.52 39.11 M210.95 38.08 C162.15 39.41, 113.78 39.56, 0.77 37.8 M0.35 39.82 C-1.88 22.94, -1.02 9.59, 1 -1.45 M0.22 37.21 C0.79 25.88, 0.43 14.96, -0.97 -0.49" stroke="#000000" stroke-width="1" fill="none"></path></g><g transform="translate(1307.111111111111 125) rotate(0 67 13)"><text x="0" y="18" font-family="Virgil, Segoe UI Emoji" font-size="20px" fill="#000000" text-anchor="start" style="white-space: pre;" direction="ltr">Privacy Data</text></g><g stroke-linecap="round"><g transform="translate(1380.111111111111 169) rotate(0 0.5041287500412182 43.89672283669934)"><path d="M-0.71 0.85 C-0.53 15.08, 1.53 72.14, 1.72 86.35 M1.11 0.24 C1.15 14.55, 1.45 73.09, 1.15 87.55" stroke="#000000" stroke-width="1" fill="none"></path></g><g transform="translate(1380.111111111111 169) rotate(0 0.5041287500412182 43.89672283669934)"><path d="M-7.54 60.51 C-6.28 68.27, -3.11 78.47, 0.27 87.56 M-8.81 60.13 C-5.49 67.45, -2.45 76.97, 1.12 88.02" stroke="#000000" stroke-width="1" fill="none"></path></g><g transform="translate(1380.111111111111 169) rotate(0 0.5041287500412182 43.89672283669934)"><path d="M12.98 60.62 C7.08 68.22, 3.08 78.38, 0.27 87.56 M11.71 60.25 C8.79 67.34, 5.58 76.83, 1.12 88.02" stroke="#000000" stroke-width="1" fill="none"></path></g></g><g stroke-linecap="round"><g transform="translate(1498.111111111111 312) rotate(0 27.936309527391586 -0.5231680171538358)"><path d="M0.76 -0.43 C10.07 -0.37, 47.1 0.85, 56.17 0.72 M-0.3 -1.71 C8.93 -2.01, 46.7 -1.22, 55.84 -1.02" stroke="#000000" stroke-width="1" fill="none"></path></g><g transform="translate(1498.111111111111 312) rotate(0 27.936309527391586 -0.5231680171538358)"><path d="M29.09 9.8 C39.5 5.1, 44.83 1.02, 56.69 -0.23 M30.59 8.41 C35.16 5.42, 42.56 4.4, 55.04 -0.88" stroke="#000000" stroke-width="1" fill="none"></path></g><g transform="translate(1498.111111111111 312) rotate(0 27.936309527391586 -0.5231680171538358)"><path d="M29.47 -9 C39.81 -7.55, 45.02 -5.49, 56.69 -0.23 M30.97 -10.39 C35.44 -9, 42.75 -5.62, 55.04 -0.88" stroke="#000000" stroke-width="1" fill="none"></path></g></g><g stroke-linecap="round" transform="translate(1569.111111111111 284) rotate(0 95 24)"><path d="M0.8 1.39 C49.73 -0.57, 94.2 2.2, 188.4 -1.33 M0.66 -0.06 C63.37 -1.46, 128.25 -0.97, 190.91 0.31 M188.73 0.05 C188.73 11.4, 191.37 20.23, 190.37 48.3 M189.58 -0.86 C189.65 14.72, 189.61 28.07, 190.08 48.32 M191.21 46.59 C119.24 48.19, 47.75 44.7, 1.4 49.87 M189.36 47.68 C136.01 48.02, 83.05 47.64, 0.14 47.86 M0.74 49.51 C1.99 30.27, 1.71 12.6, -1.72 -1.7 M0.04 48.19 C0.4 37.51, 0.27 26.27, -0.32 0.92" stroke="#000000" stroke-width="1" fill="none"></path></g><g transform="translate(1583.111111111111 295) rotate(0 82.5 13)"><text x="0" y="18" font-family="Virgil, Segoe UI Emoji" font-size="20px" fill="#000000" text-anchor="start" style="white-space: pre;" direction="ltr">Data Enrichment</text></g><g stroke-linecap="round"><g transform="translate(734.1111111111111 404.00000000000006) rotate(0 506.0722438427061 -2.107468734607096)"><path d="M0.65 -0.66 C169.6 -1.58, 844.14 -4.78, 1012.61 -5.82 M-0.46 1.6 C168.47 0.94, 843.5 -2.9, 1011.98 -4.19" stroke="#000000" stroke-width="1" fill="none"></path></g></g><g stroke-linecap="round"><g transform="translate(1254.111111111111 348.99999999999994) rotate(0 0.47297158018818664 19.4983478765935)"><path d="M-0.11 -1.01 C-0.06 5.64, 0.13 33.14, 0.26 40.01 M-1.62 1.08 C-1.18 7.4, 2.34 32.18, 2.57 38.41" stroke="#000000" stroke-width="1" fill="none"></path></g><g transform="translate(1254.111111111111 348.99999999999994) rotate(0 0.47297158018818664 19.4983478765935)"><path d="M-7.46 19.57 C-1.68 25.48, 1.1 31.84, 4.02 37.84 M-5.63 21.5 C-3.34 25, -0.86 30.52, 2.32 38.68" stroke="#000000" stroke-width="1" fill="none"></path></g><g transform="translate(1254.111111111111 348.99999999999994) rotate(0 0.47297158018818664 19.4983478765935)"><path d="M5.82 18.29 C7.66 24.57, 6.5 31.31, 4.02 37.84 M7.65 20.22 C6.31 24.11, 5.15 29.99, 2.32 38.68" stroke="#000000" stroke-width="1" fill="none"></path></g></g><g transform="translate(758.1111111111111 10) rotate(0 176.5 31.868055555555564)"><text x="0" y="45.73611111111113" font-family="Virgil, Segoe UI Emoji" font-size="49.0277777777778px" fill="#000000" text-anchor="start" style="white-space: pre;" direction="ltr">Data Pipelines</text></g><g transform="translate(748.1111111111111 562) rotate(0 81.5 13)"><text x="0" y="18" font-family="Virgil, Segoe UI Emoji" font-size="20px" fill="#000000" text-anchor="start" style="white-space: pre;" direction="ltr">  Enriched Data</text></g><g transform="translate(747.1111111111111 612) rotate(0 78.5 13)"><text x="0" y="18" font-family="Virgil, Segoe UI Emoji" font-size="20px" fill="#000000" text-anchor="start" style="white-space: pre;" direction="ltr">- Cleaned Data</text></g><g transform="translate(1138.111111111111 576) rotate(0 61 13)"><text x="0" y="18" font-family="Virgil, Segoe UI Emoji" font-size="20px" fill="#000000" text-anchor="start" style="white-space: pre;" direction="ltr">* Metadata</text></g><g transform="translate(11.156862745097612 386.5555555555556) rotate(0 304 37.5)"><text x="0" y="18" font-family="Virgil, Segoe UI Emoji" font-size="19.21568627450981px" fill="#000000" text-anchor="start" style="white-space: pre;" direction="ltr">Data Collection:</text><text x="0" y="43" font-family="Virgil, Segoe UI Emoji" font-size="19.21568627450981px" fill="#000000" text-anchor="start" style="white-space: pre;" direction="ltr">We need to be able to collect the data we need.</text><text x="0" y="68" font-family="Virgil, Segoe UI Emoji" font-size="19.21568627450981px" fill="#000000" text-anchor="start" style="white-space: pre;" direction="ltr">From different devices, browsers, mobile operationg systems etc.</text></g><g transform="translate(12.777777777777771 643.3333333333333) rotate(0 303 25.5)"><text x="0" y="18.5" font-family="Virgil, Segoe UI Emoji" font-size="20px" fill="#000000" text-anchor="start" style="white-space: pre;" direction="ltr">Message Queue: To be able to quickly accept the data from</text><text x="0" y="44" font-family="Virgil, Segoe UI Emoji" font-size="20px" fill="#000000" text-anchor="start" style="white-space: pre;" direction="ltr">clients and then server for the ingestion pipelines</text></g><g transform="translate(12.5555555555556 721.8888888888888) rotate(0 302 25.5)"><text x="0" y="18.5" font-family="Virgil, Segoe UI Emoji" font-size="20px" fill="#000000" text-anchor="start" style="white-space: pre;" direction="ltr">Ingestion: This component will import the data into the data</text><text x="0" y="44" font-family="Virgil, Segoe UI Emoji" font-size="20px" fill="#000000" text-anchor="start" style="white-space: pre;" direction="ltr">warehouse/lake with batch/streaming fashion. </text></g><g transform="translate(10 790.3333333333334) rotate(0 320 25.5)"><text x="0" y="18.5" font-family="Virgil, Segoe UI Emoji" font-size="20px" fill="#000000" text-anchor="start" style="white-space: pre;" direction="ltr">Cleaning pipeline: This component is responsible from deduplicating,</text><text x="0" y="44" font-family="Virgil, Segoe UI Emoji" font-size="20px" fill="#000000" text-anchor="start" style="white-space: pre;" direction="ltr">dropping invalid data etc. </text></g><g transform="translate(12.222222222222115 862.5555555555554) rotate(0 323.5 25.5)"><text x="0" y="18.5" font-family="Virgil, Segoe UI Emoji" font-size="20px" fill="#000000" text-anchor="start" style="white-space: pre;" direction="ltr">Privacy Data: This data would include details about user/device</text><text x="0" y="44" font-family="Virgil, Segoe UI Emoji" font-size="20px" fill="#000000" text-anchor="start" style="white-space: pre;" direction="ltr">deletions, take-out and opt-outs. </text></g><g transform="translate(14.444444444444372 929.2222222222221) rotate(0 291.5 25.5)"><text x="0" y="18.5" font-family="Virgil, Segoe UI Emoji" font-size="20px" fill="#000000" text-anchor="start" style="white-space: pre;" direction="ltr">Data Enrichment: Joining the data from different sources </text><text x="0" y="44" font-family="Virgil, Segoe UI Emoji" font-size="20px" fill="#000000" text-anchor="start" style="white-space: pre;" direction="ltr">and with different attributes</text></g><g transform="translate(1547.777777777778 525.8888888888889) rotate(0 378.5 64)"><text x="0" y="17.6" font-family="Virgil, Segoe UI Emoji" font-size="20px" fill="#000000" text-anchor="start" style="white-space: pre;" direction="ltr">Metadata: This is the data catalog in my mind, which has </text><text x="0" y="43.2" font-family="Virgil, Segoe UI Emoji" font-size="20px" fill="#000000" text-anchor="start" style="white-space: pre;" direction="ltr">the information about the tables/datasets in the lake. </text><text x="0" y="68.80000000000001" font-family="Virgil, Segoe UI Emoji" font-size="20px" fill="#000000" text-anchor="start" style="white-space: pre;" direction="ltr">This metadata should be searchable, tagged by sources,</text><text x="0" y="94.4" font-family="Virgil, Segoe UI Emoji" font-size="20px" fill="#000000" text-anchor="start" style="white-space: pre;" direction="ltr">schema description, partition information, index, primary key etc. information. </text><text x="0" y="120" font-family="Virgil, Segoe UI Emoji" font-size="20px" fill="#000000" text-anchor="start" style="white-space: pre;" direction="ltr">Also, who can access, the retention period for the data etc. </text></g><g transform="translate(1552.2222222222224 761.4444444444446) rotate(0 379.5 25.5)"><text x="0" y="18.5" font-family="Virgil, Segoe UI Emoji" font-size="20px" fill="#000000" text-anchor="start" style="white-space: pre;" direction="ltr">Ad-hoc query: The warehouse/lake should be able to provide necessary tools</text><text x="0" y="44" font-family="Virgil, Segoe UI Emoji" font-size="20px" fill="#000000" text-anchor="start" style="white-space: pre;" direction="ltr">for quick/ad-hoc queries for business analytics.</text></g><g transform="translate(1550.0000000000002 825.8888888888891) rotate(0 412.5 25.5)"><text x="0" y="18.5" font-family="Virgil, Segoe UI Emoji" font-size="20px" fill="#000000" text-anchor="start" style="white-space: pre;" direction="ltr">Data Visualisation: The data analysts should also be able to create some graphs</text><text x="0" y="44" font-family="Virgil, Segoe UI Emoji" font-size="20px" fill="#000000" text-anchor="start" style="white-space: pre;" direction="ltr">to make data easily understandable by humans</text></g><g transform="translate(1551.111111111111 891.4444444444446) rotate(0 423.5 25.5)"><text x="0" y="18.5" font-family="Virgil, Segoe UI Emoji" font-size="20px" fill="#000000" text-anchor="start" style="white-space: pre;" direction="ltr">Data export: The data should also be available for accessing via an API/SDK and </text><text x="0" y="44" font-family="Virgil, Segoe UI Emoji" font-size="20px" fill="#000000" text-anchor="start" style="white-space: pre;" direction="ltr">be able to exported to a csv/spreadsheet</text></g></svg>